<?xml version="1.0" encoding="utf-8"?>
<!-- Generator: Adobe Illustrator 23.1.1, SVG Export Plug-In . SVG Version: 6.00 Build 0)  -->
<svg version="1.1" id="Calque_1" xmlns="http://www.w3.org/2000/svg" xmlns:xlink="http://www.w3.org/1999/xlink" x="0px" y="0px"
	 viewBox="0 0 141.7 141.7" style="enable-background:new 0 0 141.7 141.7;" xml:space="preserve">
<style type="text/css">
	.st0{fill:#927C26;stroke:#FFFFFF;stroke-miterlimit:10;}
</style>
<path class="st0" d="M60.9,74.9h21H60.9z M50.4,97.7h10.5V74.8h21v22.9h10.5V65.2l-21-19l-21,19V97.7z M44.7,103.5V73H33.3
	l38.1-34.3l19,16.8V44.5h7.6v18.2L109.4,73H98.2v30.5H76.3V80.6h-9.6v22.9H44.7z"/>
</svg>
