<?xml version="1.0" encoding="utf-8"?>
<!-- Generator: Adobe Illustrator 23.1.1, SVG Export Plug-In . SVG Version: 6.00 Build 0)  -->
<svg version="1.1" id="Calque_1" xmlns="http://www.w3.org/2000/svg" xmlns:xlink="http://www.w3.org/1999/xlink" x="0px" y="0px"
	 viewBox="0 0 141.7 141.7" style="enable-background:new 0 0 141.7 141.7;" xml:space="preserve">
<style type="text/css">
	.st0{fill:#FFFFFF;}
	.st1{fill:none;stroke:#927C26;stroke-width:6;}
</style>
<g>
	<g>
		<path class="st0" d="M70.9,96.9c14.4,0,26-11.7,26-26s-11.7-26.1-26-26.1s-26,11.7-26,26.1S56.5,96.9,70.9,96.9"/>
	</g>
	<g>
		<path class="st1" d="M70.9,96.9c14.4,0,26-11.7,26-26s-11.7-26.1-26-26.1s-26,11.7-26,26.1S56.5,96.9,70.9,96.9z"/>
	</g>
</g>
<line class="st1" x1="56" y1="70.9" x2="86" y2="70.9"/>
</svg>
